{
  "compressionlevel": -1,
  "editorsettings": {
    "export": {
      "format": "json",
      "target": "level1.json"
    }
  },
  "height": 22,
  "infinite": false,
  "layers": [
    {
      "data": [
        0, 0, 0, 0, 0, 0, 0, 0, 0, 0, 0, 21, 21, 21, 21, 0, 0, 0, 0, 0, 0, 0, 0, 0, 0, 0, 0, 0, 0,
        0, 0, 0, 0, 0, 0, 0, 0, 0, 0, 0, 0, 0, 0, 0, 21, 21, 21, 21, 0, 0, 0, 0, 0, 0, 0, 0, 0, 0,
        0, 0, 0, 0, 0, 0, 0, 0, 0, 0, 0, 0, 0, 0, 0, 0, 0, 0, 0, 21, 21, 21, 21, 0, 0, 0, 0, 0, 0,
        0, 0, 0, 0, 0, 0, 0, 0, 0, 0, 0, 0, 0, 21, 21, 21, 21, 21, 21, 21, 21, 21, 0, 21, 21, 21,
        21, 0, 26, 26, 26, 26, 26, 28, 21, 21, 21, 21, 21, 21, 21, 21, 21, 21, 0, 0, 21, 21, 21, 21,
        21, 21, 21, 21, 21, 0, 21, 21, 21, 21, 0, 0, 0, 0, 0, 0, 33, 21, 21, 21, 21, 21, 21, 21, 21,
        21, 21, 0, 0, 21, 21, 21, 21, 21, 21, 21, 21, 21, 0, 21, 21, 21, 21, 0, 0, 0, 0, 0, 0, 33,
        21, 21, 21, 21, 21, 21, 21, 21, 21, 21, 0, 0, 21, 21, 21, 21, 21, 21, 21, 21, 21, 0, 21, 21,
        21, 21, 0, 0, 0, 0, 0, 0, 33, 21, 21, 21, 21, 21, 21, 21, 21, 21, 21, 0, 0, 21, 21, 21, 21,
        21, 21, 21, 21, 21, 0, 21, 0, 0, 0, 0, 0, 0, 0, 80, 36, 38, 26, 21, 21, 21, 21, 21, 21, 21,
        21, 21, 0, 0, 21, 21, 21, 21, 21, 21, 21, 21, 21, 0, 21, 0, 0, 0, 0, 0, 0, 0, 82, 26, 83,
        28, 21, 21, 21, 21, 33, 21, 21, 21, 21, 0, 0, 21, 21, 21, 21, 21, 21, 21, 21, 21, 0, 21, 0,
        0, 0, 0, 0, 0, 0, 0, 0, 0, 33, 21, 21, 21, 21, 33, 21, 21, 21, 21, 0, 0, 21, 21, 21, 21, 21,
        21, 21, 21, 21, 0, 21, 0, 17, 21, 29, 0, 0, 0, 0, 0, 0, 33, 21, 21, 21, 21, 33, 21, 21, 21,
        21, 0, 0, 21, 21, 21, 21, 21, 21, 21, 21, 21, 0, 21, 0, 21, 21, 29, 0, 0, 0, 0, 0, 0, 33,
        21, 21, 21, 21, 33, 21, 21, 21, 21, 0, 0, 21, 21, 21, 21, 21, 21, 21, 21, 21, 0, 0, 0, 21,
        21, 29, 0, 0, 0, 80, 36, 81, 38, 21, 21, 21, 21, 33, 21, 21, 21, 21, 0, 0, 21, 21, 21, 21,
        21, 21, 21, 21, 21, 0, 0, 0, 21, 21, 29, 0, 0, 0, 82, 25, 28, 36, 36, 36, 36, 36, 21, 21,
        21, 21, 21, 0, 0, 21, 21, 21, 21, 21, 21, 21, 21, 21, 0, 9, 0, 21, 21, 29, 0, 0, 0, 0, 0,
        33, 21, 21, 21, 21, 21, 21, 21, 21, 21, 21, 0, 0, 21, 21, 21, 21, 21, 21, 21, 21, 21, 21,
        21, 21, 21, 21, 29, 0, 0, 0, 0, 0, 33, 21, 21, 21, 21, 21, 21, 21, 21, 21, 21, 0, 0, 21, 21,
        21, 21, 21, 21, 21, 21, 21, 21, 21, 21, 21, 21, 29, 0, 0, 0, 0, 0, 33, 21, 21, 21, 21, 21,
        21, 21, 21, 21, 21, 0, 0, 21, 21, 21, 21, 21, 21, 21, 21, 21, 21, 21, 21, 21, 21, 34, 35,
        35, 35, 35, 35, 38, 21, 21, 21, 21, 21, 21, 21, 21, 21, 21, 0, 0, 21, 21, 21, 21, 21, 21,
        21, 21, 21, 21, 21, 21, 21, 21, 21, 21, 21, 21, 21, 21, 21, 21, 21, 21, 21, 21, 21, 21, 21,
        21, 21, 0, 0, 0, 0, 0, 0, 0, 0, 0, 0, 0, 0, 0, 0, 0, 0, 0, 0, 0, 0, 0, 0, 0, 0, 0, 0, 0, 0,
        0, 0, 0, 0, 0, 0, 0, 0, 0, 0, 0, 0, 0, 0, 0, 0, 0, 0, 0, 0, 0, 0, 0, 0, 0, 0, 0, 0, 0, 0, 0,
        0, 0, 0, 0, 0, 0, 0, 0, 0, 0, 0, 0, 0, 0, 0, 0, 0, 0, 0, 0, 0, 0, 0, 0, 0, 0, 0, 0, 0, 0, 0,
        0, 0, 0, 0, 0, 0, 0, 0, 0, 0
      ],
      "height": 22,
      "id": 1,
      "name": "Lower World",
      "opacity": 1,
      "type": "tilelayer",
      "visible": true,
      "width": 33,
      "x": 0,
      "y": 0
    },
    {
      "data": [
        72, 2, 2, 2, 2, 2, 2, 2, 2, 2, 73, 0, 0, 0, 0, 72, 2, 2, 2, 2, 2, 2, 2, 2, 2, 2, 4, 0, 0, 1,
        3, 2, 73, 67, 5, 5, 7, 153, 153, 7, 6, 6, 7, 67, 0, 0, 0, 0, 67, 7, 6, 6, 6, 6, 6, 6, 6, 6,
        6, 7, 0, 0, 7, 6, 6, 67, 67, 12, 12, 11, 163, 163, 11, 12, 12, 11, 67, 0, 0, 0, 0, 67, 11,
        12, 12, 12, 12, 12, 12, 12, 12, 12, 11, 0, 0, 11, 12, 12, 67, 67, 168, 0, 0, 0, 0, 0, 0, 0,
        0, 67, 0, 0, 0, 0, 67, 168, 168, 168, 0, 0, 0, 0, 0, 0, 0, 0, 0, 0, 0, 0, 0, 67, 67, 0, 0,
        0, 0, 0, 0, 0, 0, 0, 67, 0, 0, 0, 0, 67, 32, 32, 32, 32, 32, 0, 0, 0, 0, 0, 0, 0, 0, 0, 0,
        0, 67, 67, 0, 0, 0, 0, 0, 0, 0, 0, 0, 67, 0, 0, 0, 0, 67, 44, 44, 44, 44, 44, 0, 0, 1, 3, 3,
        3, 3, 3, 0, 3, 3, 67, 67, 0, 0, 0, 0, 0, 0, 0, 0, 0, 67, 0, 0, 0, 0, 67, 43, 44, 44, 44, 44,
        0, 0, 6, 5, 6, 5, 6, 5, 0, 6, 5, 67, 67, 0, 0, 0, 0, 0, 0, 0, 0, 0, 67, 0, 72, 3, 3, 75, 43,
        44, 44, 0, 0, 0, 0, 10, 9, 10, 9, 10, 9, 0, 10, 9, 67, 67, 0, 0, 0, 0, 0, 0, 0, 0, 0, 67, 0,
        67, 7, 5, 7, 43, 44, 44, 0, 0, 0, 32, 32, 32, 32, 32, 0, 0, 0, 0, 0, 67, 67, 0, 0, 0, 0, 0,
        0, 0, 0, 0, 67, 0, 67, 11, 12, 11, 43, 44, 44, 32, 32, 32, 44, 44, 44, 44, 44, 0, 0, 0, 0,
        0, 67, 67, 3, 3, 3, 3, 3, 3, 3, 0, 3, 67, 0, 67, 131, 0, 131, 43, 44, 44, 44, 44, 44, 44,
        44, 44, 44, 44, 0, 0, 0, 0, 0, 67, 67, 5, 6, 5, 6, 5, 5, 6, 0, 6, 67, 0, 67, 0, 0, 0, 44,
        44, 44, 44, 44, 44, 44, 44, 44, 44, 44, 0, 0, 0, 0, 0, 67, 67, 9, 10, 9, 10, 9, 9, 10, 0,
        10, 74, 2, 75, 0, 0, 0, 44, 44, 44, 0, 0, 0, 43, 44, 44, 44, 44, 0, 0, 0, 0, 0, 67, 67, 0,
        0, 0, 0, 0, 0, 0, 0, 0, 7, 5, 7, 0, 0, 0, 44, 44, 44, 0, 90, 0, 0, 0, 0, 0, 0, 0, 0, 0, 0,
        0, 67, 67, 0, 0, 0, 0, 0, 0, 0, 0, 0, 11, 158, 11, 0, 0, 0, 44, 44, 44, 32, 32, 0, 0, 0, 0,
        0, 0, 0, 0, 0, 0, 0, 67, 67, 0, 0, 0, 0, 0, 0, 0, 0, 0, 170, 170, 170, 0, 0, 0, 44, 44, 44,
        44, 44, 0, 0, 0, 0, 0, 0, 0, 0, 0, 0, 0, 67, 67, 0, 0, 0, 0, 0, 0, 0, 0, 0, 170, 170, 170,
        0, 0, 0, 43, 44, 44, 44, 44, 0, 0, 0, 0, 0, 0, 0, 0, 0, 0, 0, 67, 67, 0, 0, 0, 0, 0, 0, 0,
        0, 0, 0, 0, 0, 0, 0, 0, 0, 0, 0, 0, 0, 0, 0, 0, 0, 0, 0, 0, 0, 0, 0, 0, 67, 67, 0, 0, 0, 0,
        0, 0, 0, 0, 0, 0, 0, 0, 0, 0, 0, 0, 0, 0, 0, 0, 0, 0, 0, 0, 0, 0, 0, 0, 0, 0, 0, 67, 74, 3,
        3, 3, 2, 3, 3, 3, 3, 3, 3, 3, 3, 3, 3, 3, 2, 3, 3, 3, 3, 3, 3, 3, 3, 3, 3, 3, 3, 3, 3, 3,
        75, 7, 5, 6, 6, 7, 5, 6, 6, 7, 5, 6, 6, 7, 5, 6, 6, 7, 5, 6, 6, 7, 5, 6, 6, 7, 5, 6, 6, 7,
        5, 6, 6, 7, 11, 9, 10, 10, 11, 9, 10, 10, 11, 9, 10, 10, 11, 9, 10, 10, 11, 9, 10, 10, 11,
        9, 10, 10, 11, 9, 10, 10, 11, 9, 10, 10, 11
      ],
      "height": 22,
      "id": 2,
      "name": "World",
      "opacity": 1,
      "type": "tilelayer",
      "visible": true,
      "width": 33,
      "x": 0,
      "y": 0
    },
    {
      "draworder": "topdown",
      "id": 4,
      "name": "Objects",
      "objects": [
        {
          "gid": 88,
          "height": 48,
          "id": 36,
          "name": "spikes",
          "rotation": 0,
          "type": "",
          "visible": true,
          "width": 48,
          "x": 1440,
          "y": 624
        },
        {
          "gid": 88,
          "height": 48,
          "id": 37,
          "name": "spikes",
          "rotation": 0,
          "type": "",
          "visible": true,
          "width": 48,
          "x": 1488,
          "y": 720
        },
        {
          "gid": 92,
          "height": 48,
          "id": 73,
          "name": "gold_key",
          "rotation": 0,
          "type": "",
          "visible": true,
          "width": 48,
          "x": 96,
          "y": 432
        },
        {
          "gid": 92,
          "height": 48,
          "id": 74,
          "name": "gold_key",
          "rotation": 0,
          "type": "",
          "visible": true,
          "width": 48,
          "x": 384,
          "y": 432
        },
        {
          "gid": 92,
          "height": 48,
          "id": 75,
          "name": "gold_key",
          "rotation": 0,
          "type": "",
          "visible": true,
          "width": 48,
          "x": 96,
          "y": 240
        },
        {
          "gid": 138,
          "height": 48,
          "id": 76,
          "name": "chest",
          "properties": [
            {
              "name": "opened",
              "type": "bool",
              "value": false
            }
          ],
          "rotation": 0,
          "type": "",
          "visible": true,
          "width": 48,
          "x": 1344,
          "y": 480
        },
        {
          "gid": 138,
          "height": 48,
          "id": 77,
          "name": "chest",
          "properties": [
            {
              "name": "opened",
              "type": "bool",
              "value": false
            }
          ],
          "rotation": 0,
          "type": "",
          "visible": true,
          "width": 48,
          "x": 1440,
          "y": 672
        },
        {
          "gid": 138,
          "height": 48,
          "id": 78,
          "name": "chest",
          "properties": [
            {
              "name": "opened",
              "type": "bool",
              "value": false
            }
          ],
          "rotation": 0,
          "type": "",
          "visible": true,
          "width": 48,
          "x": 1488,
          "y": 768
        },
        {
          "gid": 138,
          "height": 48,
          "id": 79,
          "name": "chest",
          "properties": [
            {
              "name": "opened",
              "type": "bool",
              "value": false
            }
          ],
          "rotation": 0,
          "type": "",
          "visible": true,
          "width": 48,
          "x": 1392,
          "y": 576
        },
        {
          "gid": 88,
          "height": 48,
          "id": 83,
          "name": "spikes",
          "rotation": 0,
          "type": "",
          "visible": true,
          "width": 48,
          "x": 1392,
          "y": 528
        },
        {
          "gid": 88,
          "height": 48,
          "id": 87,
          "name": "spikes",
          "rotation": 0,
          "type": "",
          "visible": true,
          "width": 48,
          "x": 1344,
          "y": 432
        },
        {
          "gid": 141,
          "height": 144,
          "id": 108,
          "name": "door",
          "properties": [
            {
              "name": "id",
              "type": "int",
              "value": 0
            }
          ],
          "rotation": 0,
          "type": "",
          "visible": true,
          "width": 96,
          "x": 1296,
          "y": 144
        },
        {
          "gid": 96,
          "height": 48,
          "id": 109,
          "name": "lever",
          "properties": [
            {
              "name": "id",
              "type": "int",
              "value": 0
            },
            {
              "name": "win",
              "type": "bool",
              "value": true
            }
          ],
          "rotation": 0,
          "type": "",
          "visible": true,
          "width": 48,
          "x": 1440,
          "y": 192
        },
        {
          "gid": 141,
          "height": 96,
          "id": 110,
          "name": "hash",
          "rotation": 0,
          "type": "",
          "visible": true,
          "width": 48,
          "x": 384,
          "y": 624
        },
        {
          "gid": 92,
          "height": 48,
          "id": 111,
          "name": "gold_key",
          "rotation": 0,
          "type": "",
          "visible": true,
          "width": 48,
          "x": 384,
          "y": 240
        },
        {
          "gid": 92,
          "height": 48,
          "id": 112,
          "name": "gold_key",
          "rotation": 0,
          "type": "",
          "visible": true,
          "width": 48,
          "x": 672,
          "y": 528
        },
        {
          "gid": 137,
          "height": 48,
          "id": 113,
          "name": "chest",
          "properties": [
            {
              "name": "opened",
              "type": "bool",
              "value": true
            }
          ],
          "rotation": 0,
          "type": "",
          "visible": true,
          "width": 48,
          "x": 48,
          "y": 720
        },
        {
          "gid": 137,
          "height": 48,
          "id": 115,
          "name": "chest",
          "properties": [
            {
              "name": "opened",
              "type": "bool",
              "value": true
            }
          ],
          "rotation": 0,
          "type": "",
          "visible": true,
          "width": 48,
          "x": 240,
          "y": 912
        },
        {
          "gid": 88,
          "height": 48,
          "id": 116,
          "name": "spikes",
          "rotation": 0,
          "type": "",
          "visible": true,
          "width": 48,
          "x": 96,
          "y": 864
        },
        {
          "gid": 88,
          "height": 48,
          "id": 117,
          "name": "spikes",
          "rotation": 0,
          "type": "",
          "visible": true,
          "width": 48,
          "x": 192,
          "y": 768
        },
        {
          "gid": 88,
          "height": 48,
          "id": 118,
          "name": "spikes",
          "rotation": 0,
          "type": "",
          "visible": true,
          "width": 48,
          "x": 48,
          "y": 912
        },
        {
          "gid": 88,
          "height": 48,
          "id": 119,
          "name": "spikes",
          "rotation": 0,
          "type": "",
          "visible": true,
          "width": 48,
          "x": 240,
          "y": 720
        },
        {
          "gid": 141,
          "height": 96,
          "id": 121,
          "name": "hash",
          "rotation": 0,
          "type": "",
          "visible": true,
          "width": 48,
          "x": 1392,
          "y": 384
        },
        {
          "gid": 92,
          "height": 48,
          "id": 122,
          "name": "gold_key",
          "rotation": 0,
          "type": "",
          "visible": true,
          "width": 48,
          "x": 672,
          "y": 672
        },
        {
          "gid": 100,
          "height": 48,
          "id": 124,
          "name": "bone",
          "rotation": 0,
          "type": "",
          "visible": true,
          "width": 48,
          "x": 1100,
          "y": 733.333
        },
        {
          "gid": 100,
          "height": 48,
          "id": 125,
          "name": "bone",
          "rotation": 0,
          "type": "",
          "visible": true,
          "width": 48,
          "x": 1030.67,
          "y": 218.667
        },
        {
          "gid": 100,
          "height": 48,
          "id": 126,
          "name": "bone",
          "rotation": 0,
          "type": "",
          "visible": true,
          "width": 48,
          "x": 73.3333,
          "y": 309.333
        },
        {
          "gid": 100,
          "height": 48,
          "id": 127,
          "name": "bone",
          "rotation": 0,
          "type": "",
          "visible": true,
          "width": 48,
          "x": 200,
          "y": 769.333
        },
        {
          "gid": 93,
          "height": 48,
          "id": 128,
          "name": "skeleton",
          "rotation": 0,
          "type": "",
          "visible": true,
          "width": 48,
          "x": 948,
          "y": 409.333
        },
        {
          "gid": 84,
          "height": 48,
          "id": 129,
          "name": "torch",
          "rotation": 0,
          "type": "",
          "visible": true,
          "width": 48,
          "x": 1300,
          "y": 362.667
        },
        {
          "gid": 84,
          "height": 48,
          "id": 130,
          "name": "torch",
          "rotation": 0,
          "type": "",
          "visible": true,
          "width": 48,
          "x": 1485.33,
          "y": 361.333
        },
        {
          "gid": 84,
          "height": 48,
          "id": 131,
          "name": "torch",
          "rotation": 0,
          "type": "",
          "visible": true,
          "width": 48,
          "x": 385.333,
          "y": 124
        },
        {
          "gid": 84,
          "height": 48,
          "id": 132,
          "name": "torch",
          "rotation": 0,
          "type": "",
          "visible": true,
          "width": 48,
          "x": 165.333,
          "y": 601.333
        },
        {
          "gid": 174,
          "height": 96,
          "id": 134,
          "name": "fire",
          "rotation": 0,
          "type": "",
          "visible": true,
          "width": 48,
          "x": 960,
          "y": 144
        },
        {
          "gid": 174,
          "height": 96,
          "id": 135,
          "name": "fire",
          "rotation": 0,
          "type": "",
          "visible": true,
          "width": 48,
          "x": 1104,
          "y": 144
        },
        {
          "gid": 141,
          "height": 46,
          "id": 136,
          "name": "player",
          "properties": [
            {
              "name": "direction",
              "type": "int",
              "value": 0
            },
            {
              "name": "energy",
              "type": "int",
              "value": 170
            },
            {
              "name": "totalGold",
              "type": "int",
              "value": 6
            }
          ],
          "rotation": 0,
          "type": "",
          "visible": true,
          "width": 46,
          "x": 241,
          "y": 239
        }
      ],
      "opacity": 1,
      "type": "objectgroup",
      "visible": true,
      "x": 0,
      "y": 0
    },
    {
      "data": [
        0, 0, 0, 0, 0, 0, 0, 0, 0, 0, 0, 0, 0, 0, 0, 0, 0, 0, 0, 0, 0, 0, 0, 0, 0, 0, 0, 0, 0, 0, 0,
        0, 0, 0, 0, 124, 0, 0, 0, 0, 124, 0, 0, 0, 0, 0, 0, 0, 0, 0, 0, 0, 0, 0, 0, 0, 0, 0, 124, 0,
        0, 0, 0, 124, 0, 0, 0, 158, 134, 0, 0, 0, 0, 134, 0, 0, 0, 0, 0, 0, 0, 0, 158, 159, 160, 0,
        0, 0, 0, 0, 0, 134, 0, 0, 0, 0, 134, 0, 0, 0, 0, 0, 0, 0, 0, 0, 0, 0, 0, 0, 0, 0, 0, 0, 0,
        0, 0, 0, 0, 0, 0, 0, 0, 0, 0, 0, 0, 0, 0, 0, 0, 0, 0, 0, 0, 0, 0, 0, 0, 0, 0, 0, 0, 0, 0, 0,
        0, 0, 0, 0, 0, 0, 0, 0, 0, 0, 0, 0, 0, 0, 0, 0, 0, 0, 0, 0, 0, 0, 0, 0, 0, 0, 0, 0, 0, 0, 0,
        0, 0, 0, 0, 0, 0, 0, 0, 0, 0, 0, 0, 0, 0, 0, 0, 0, 3, 0, 0, 0, 0, 0, 0, 0, 0, 0, 0, 0, 0, 0,
        0, 0, 0, 0, 0, 0, 0, 0, 0, 0, 0, 0, 0, 0, 0, 123, 0, 0, 0, 0, 0, 0, 0, 0, 0, 0, 0, 0, 0, 0,
        0, 0, 0, 0, 0, 0, 0, 0, 0, 0, 0, 0, 0, 0, 0, 0, 0, 0, 133, 0, 0, 0, 0, 0, 0, 0, 0, 0, 0, 0,
        0, 0, 0, 0, 0, 0, 0, 0, 0, 0, 101, 0, 0, 0, 0, 0, 0, 0, 0, 0, 0, 0, 0, 0, 0, 0, 0, 0, 0, 0,
        0, 0, 0, 0, 0, 0, 0, 0, 0, 0, 0, 0, 121, 111, 121, 0, 0, 0, 0, 0, 0, 0, 0, 0, 0, 0, 0, 0, 0,
        0, 0, 0, 0, 0, 0, 0, 0, 0, 0, 0, 3, 0, 0, 0, 0, 0, 0, 0, 0, 0, 0, 0, 0, 0, 0, 0, 0, 0, 0, 0,
        0, 0, 0, 0, 0, 0, 0, 123, 0, 0, 123, 0, 0, 0, 0, 0, 0, 0, 0, 0, 0, 0, 0, 0, 0, 0, 0, 0, 0,
        0, 0, 0, 0, 0, 0, 0, 0, 0, 0, 0, 133, 0, 0, 133, 0, 0, 0, 0, 0, 0, 0, 0, 0, 0, 0, 0, 0, 0,
        0, 0, 0, 0, 0, 0, 0, 0, 0, 0, 0, 0, 0, 0, 0, 0, 0, 0, 0, 0, 0, 0, 0, 0, 123, 0, 0, 0, 0, 0,
        0, 0, 0, 0, 0, 0, 0, 0, 0, 0, 0, 0, 0, 0, 0, 0, 0, 0, 0, 0, 0, 0, 0, 0, 0, 0, 158, 133, 158,
        0, 0, 0, 0, 0, 0, 0, 0, 0, 0, 0, 0, 0, 0, 0, 0, 0, 0, 0, 0, 0, 0, 0, 0, 0, 0, 0, 0, 0, 0,
        158, 158, 158, 0, 0, 0, 0, 0, 0, 0, 0, 0, 0, 0, 0, 0, 0, 0, 0, 0, 0, 0, 0, 0, 0, 0, 0, 0, 0,
        0, 0, 0, 0, 0, 0, 0, 0, 0, 0, 0, 0, 0, 0, 0, 0, 0, 0, 0, 0, 0, 0, 0, 0, 0, 0, 0, 0, 0, 0, 0,
        0, 0, 0, 0, 0, 0, 0, 0, 0, 0, 0, 0, 0, 0, 0, 0, 0, 0, 0, 0, 0, 0, 0, 0, 0, 0, 0, 0, 0, 0, 0,
        0, 0, 0, 0, 0, 0, 0, 0, 0, 0, 0, 0, 0, 0, 0, 0, 0, 0, 0, 0, 0, 0, 0, 0, 0, 0, 0, 0, 0, 0, 0,
        0, 0, 0, 0, 0, 0, 0, 0, 0, 0, 0, 0, 0, 0, 0, 0, 0, 0, 0, 0, 0, 0, 0, 0, 0, 0, 0, 0, 0, 0, 0,
        0, 0, 0, 0, 0, 0, 0, 0, 124, 0, 0, 0, 0, 0, 0, 0, 124, 0, 0, 0, 0, 0, 0, 0, 124, 0, 0, 0, 0,
        0, 0, 0, 124, 0, 0, 0, 0, 0, 0, 0, 0, 134, 0, 0, 0, 0, 0, 0, 0, 134, 0, 0, 0, 0, 0, 0, 0,
        134, 0, 0, 0, 0, 0, 0, 0, 134, 0, 0
      ],
      "height": 22,
      "id": 3,
      "name": "Upper World",
      "opacity": 1,
      "type": "tilelayer",
      "visible": true,
      "width": 33,
      "x": 0,
      "y": 0
    }
  ],
  "nextlayerid": 5,
  "nextobjectid": 137,
  "orientation": "orthogonal",
  "renderorder": "right-down",
  "tiledversion": "1.3.3",
  "tileheight": 48,
  "tilesets": [
    {
      "columns": 10,
      "firstgid": 1,
      "image": "../tiles.png",
      "imageheight": 864,
      "imagewidth": 480,
      "margin": 0,
      "name": "tiles",
      "spacing": 0,
      "tilecount": 180,
      "tileheight": 48,
      "tilewidth": 48
    }
  ],
  "tilewidth": 48,
  "type": "map",
  "version": 1.2,
  "width": 33
}
